﻿(1.00)Voie;Active;Groupe;Nom;Gaz 1;Unité;Echelle;Seuil 1;Seuil 2;Seuil 3;Seuil 4;Couleur;Gaz 2;Unité;Echelle;Seuil 1;Seuil 2;Seuil 3;Seuil 4;Couleur;Gaz 3;Unité;Echelle;Seuil 1;Seuil 2;Seuil 3;Seuil 4;Couleur
1;1;;Capteur H2 de démo;H2;%LIE;100;20%LIE;40%LIE;;;;;;;;;;;;;;;;;;;
2;1;;Capteur O2 de démo;O2;%VOL;25;19%VOL;17%VOL;;;;;;;;;;;;;;;;;;;
3;0;;Capteur H2 de démo désactivé;H2;%LIE;100;20%LIE;40%LIE;;;;;;;;;;;;;;;;;;;
